ISSS608-VAA - Take Home Exercise 03
…
Now we have a time series dataset about the average price per square meter for 3 rooms unit from 2017 to 2023.

The following chunk of code will visualize this time series dataset, to see how much did the average prices of 3 rooms unit HDB have changed in the last 7 years.

three_roomdf1 = three_roomdf[c("month" , "price_per_sqm" )]

threeroom_monthly_avg = three_roomdf1 %>%
group_by(month) %>%
summarise(three_roomdf_avg_monthly = mean(price_per_sqm))

threeroom_monthly_avg

# A tibble: 74 × 2
   month   three_roomdf_avg_monthly
   <chr>                      <dbl>
 1 2017-01                    4694.
 2 2017-02                    4690.
 3 2017-03                    4699.
 4 2017-04                    4686.
 5 2017-05                    4663.
 6 2017-06                    4725.
 7 2017-07                    4645.
 8 2017-08                    4620.
 9 2017-09                    4633.
10 2017-10                    4682.
# … with 64 more rows
…
